,Artist,Title,Part,Measures
0,30 Seconds To Mars,THE KILL,E.Guitar I,115
1,30 Seconds To Mars,THE KILL,E.Guitar II,115
2,30 Seconds To Mars,THE KILL,E.Guitar III,115
3,3 Doors Down,KRYPTONITE,A.Guitar,93
4,3 Doors Down,KRYPTONITE,E.Guitar I,93
5,3 Doors Down,KRYPTONITE,E.Guitar II,93
6,3 Doors Down,KRYPTONITE,E.Guitar III,93
7,3 Doors Down,KRYPTONITE,E.Guitar IV,93
8,4 Non Blondes,WHAT'S UP,A.Guitar I (Left),80
9,4 Non Blondes,WHAT'S UP,A.Guitar II (Right),80
10,4 Non Blondes,WHAT'S UP,E.Guitar I,80
11,AC/DC,RIDE ON,E.Guitar I (Left),102
12,AC/DC,RIDE ON,E.Guitar II (Right),102
13,AC/DC,RIDE ON,E.Guitar III (Lead),102
14,AC/DC,T.N.T.,E.Guitar I (Left),114
15,AC/DC,T.N.T.,E.Guitar II (Right),114
16,AC/DC,T.N.T.,E.Guitar III (Lead),114
17,AC/DC,HIGHWAY TO HELL,E.Guitar I,94
18,AC/DC,HIGHWAY TO HELL,E.Guitar II,94
19,AC/DC,HIGHWAY TO HELL,E.Guitar III (Lead),94
20,Arctic Monkeys,WHEN THE SUN GOES DOWN,E.Guitar I,123
21,Arctic Monkeys,WHEN THE SUN GOES DOWN,E.Guitar II,123
22,None,CRY ME A RIVER,A.Guitar,39
23,Avril Lavigne,KNOCKIN' ON HEAVEN'S DOOR,A.Guitar,48
24,B.B. King (with Eric Clapton),RIDING WITH THE KING,E.Guitar I,115
25,B.B. King (with Eric Clapton),RIDING WITH THE KING,E.Guitar II (Lead),115
26,B.B. King (with Eric Clapton),RIDING WITH THE KING,E.Guitar III (Lead),115
27,Black Sabbath,PARANOID,E.Guitar I,111
28,Black Sabbath,PARANOID,E.Guitar II,111
29,Black Sabbath,PARANOID,E.Guitar III (Solo),111
30,Blue Öyster Cult,BURNIN' FOR YOU,E.Guitar I,149
31,Blue Öyster Cult,BURNIN' FOR YOU,E.Guitar II,149
32,Blue Öyster Cult,BURNIN' FOR YOU,E.Guitar III,149
33,Blue Öyster Cult,BURNIN' FOR YOU,E.Guitar IV,149
34,Blue Öyster Cult,BURNIN' FOR YOU,E.Guitar V,149
35,Bob Marley,NO WOMAN NO CRY,E.Guitar,138
36,Bob Marley,"NO WOMAN, NO CRY",A.Guitar,121
37,Dire Straits,Sultans of Swing,E.Guitar I,217
38,Dire Straits,Sultans of Swing,E.Guitar II,217
39,Dire Straits,Sultans of Swing,E.Guitar III,217
40,Django Reinhardt,MINOR SWING,A.Guitar I,160
41,Django Reinhardt,MINOR SWING,A.Guitar II,160
42,Django Reinhardt,SWING 42,A.Guitar I,144
43,Django Reinhardt,SWING 42,A.Guitar II,144
44,The Eagles,Hotel California,A.Guitar I,120
45,The Eagles,Hotel California,A.Guitar II,120
46,The Eagles,Hotel California,E.Guitar III,120
47,The Eagles,Hotel California,E.Guitar IV,120
48,The Eagles,Hotel California,E.Guitar V,120
49,The Eagles,Hotel California,E.Guitar VI,120
50,The Eagles,Hotel California,E.Guitar VII,120
51,The Eagles,Hotel California,E.Guitar VIII,120
52,Green Day,HOLIDAY,E.Guitar I,141
53,Green Day,HOLIDAY,E.Guitar II,141
54,Green Day,HOLIDAY,E.Guitar III,141
55,Led Zeppelin,Stairway to Heaven,A. Guitar,166
56,Led Zeppelin,Stairway to Heaven,12-str. Guitar I,166
57,Led Zeppelin,Stairway to Heaven,12-str. Guitar II,166
58,Led Zeppelin,Stairway to Heaven,12-str. Guitar III,166
59,Led Zeppelin,Stairway to Heaven,E. Guitar I,166
60,Led Zeppelin,Stairway to Heaven,E. Guitar II,166
61,Metallica,NOTHING ELSE MATTERS,E.Guitar I,150
62,Metallica,NOTHING ELSE MATTERS,E.Guitar II,150
63,Metallica,NOTHING ELSE MATTERS,E.Guitar III (Lead),150
64,Metallica,NOTHING ELSE MATTERS,E.Guitar IV,150
65,Metallica,NOTHING ELSE MATTERS,E.Guitar V (Overdub),150
66,Metallica,NOTHING ELSE MATTERS,E.Guitar VI (Harmonized),150
67,Metallica,NOTHING ELSE MATTERS,E.Guitar VII (Harmonized),150
68,Metallica,NOTHING ELSE MATTERS,E.Guitar VIII (Harmonized),150
69,Muse,HYSTERIA,E.Guitar I (Left),87
70,Muse,HYSTERIA,E.Guitar II (Right),87
71,Muse,HYSTERIA,E.Guitar III (Lead),87
72,Muse,HYSTERIA,E.Guitar IV (Delayed 8th + 8va),87
73,Muse,HYSTERIA,E.Guitar V (Delayed 4th),87
74,Pink Floyd,ANOTHER BRICK IN THE WALL (PART II),E.Guitar I,94
75,Pink Floyd,ANOTHER BRICK IN THE WALL (PART II),E.Guitar II,94
76,Pink Floyd,ANOTHER BRICK IN THE WALL (PART II),E.Guitar III,94
77,Pink Floyd,ANOTHER BRICK IN THE WALL (PART II),E.Guitar IV,94
78,Pink Floyd,ANOTHER BRICK IN THE WALL (PART III),E.Guitar I,36
79,Pink Floyd,ANOTHER BRICK IN THE WALL (PART III),E.Guitar II,36
80,Pink Floyd,ANOTHER BRICK IN THE WALL (PART III),E.Guitar III,36
81,Pink Floyd,ANOTHER BRICK IN THE WALL (PART III),E.Guitar IV,36
82,Queen,BOHEMIAN RHAPSODY,E.Guitar I (Solo),139
83,Queen,BOHEMIAN RHAPSODY,E.Guitar II,139
84,Queen,BOHEMIAN RHAPSODY,E.Guitar III (II bis),139
85,Queen,BOHEMIAN RHAPSODY,E.Guitar IV,139
86,Queen,BOHEMIAN RHAPSODY, E.Guitar V (IVbis),139
87,None,Fake Plastic Trees,A.Guitar I,88
88,None,Fake Plastic Trees,E.Guitar I,88
89,None,Fake Plastic Trees,A.Guitar II,88
90,None,Fake Plastic Trees,E.Guitar II,88
91,Sting,Shape of My Heart,Guitar,188
92,The Beatles,Help!,E.Guitar I,106
93,The Beatles,Help!,A.Guitar II,106
94,The Beatles,Help!,E.Guitar III,106
95,The Strokes,YOU ONLY LIVE ONCE,E.Guitar I,91
96,The Strokes,YOU ONLY LIVE ONCE,E.Guitar II,91
97,The Rolling Stones,Angie,Guitar I,77
98,The Rolling Stones,Angie,Guitar II,77
99,ZZ Top,LA GRANGE,E.Guitar I,157
100,ZZ Top,LA GRANGE,E.Guitar II,157
101,ZZ Top,LA GRANGE,E.Guitar III,157
